Gov 50 Final Project
…
elections <- elections |>
  filter(VCF0004 == "2012" | VCF0004 == "2016")

elections

# A tibble: 10,184 × 1,030
   Version         VCF0004 VCF0006 VCF0006a VCF0009x VCF0010x VCF0011x
   <chr>             <dbl>   <dbl>    <dbl>    <dbl>    <dbl>    <dbl>
 1 ANES_CDF_VERSI…    2012       1 20120001    0.380    0.380    0.380
 2 ANES_CDF_VERSI…    2012       2 20120002    0.547    0.547    0.547
 3 ANES_CDF_VERSI…    2012       3 20120003    0.498    0.498    0.498
 4 ANES_CDF_VERSI…    2012       4 20120004    0.255    0.255    0.255
 5 ANES_CDF_VERSI…    2012       5 20120005    0.603    0.603    0.603
 6 ANES_CDF_VERSI…    2012       6 20120006    0.286    0.286    0.286
 7 ANES_CDF_VERSI…    2012       7 20120007    0.195    0.195    0.195
 8 ANES_CDF_VERSI…    2012       8 20120008    0.394    0.394    0.394
 9 ANES_CDF_VERSI…    2012       9 20120009    0.506    0.506    0.506
10 ANES_CDF_VERSI…    2012      10 20120010    2.51     2.51     2.51 
# ℹ 10,174 more rows
# ℹ 1,023 more variables: VCF0009y <dbl>, VCF0010y <dbl>,
#   VCF0011y <dbl>, VCF0009z <dbl>, VCF0010z <dbl>, VCF0011z <dbl>,
#   VCF9999 <dbl>, VCF0012 <dbl>, VCF0013 <dbl>, VCF0014 <dbl>,
#   VCF0015a <dbl>, VCF0015b <dbl>, VCF0016 <dbl>, VCF0017 <dbl>,
#   VCF0018a <dbl>, VCF0018b <dbl>, VCF0019 <dbl>, VCF0050a <dbl>,
#   VCF0050b <dbl>, VCF0070a <dbl>, VCF0070b <dbl>, VCF0071a <dbl>, …

elections <- elections |>
  select(`VCF0004`, `VCF0101`, `VCF0104`, `VCF0105a`, `VCF0112` ,`VCF0113`, `VCF0301`, `VCF0310`, `VCF0701`, `VCF0702`, `VCF0703`, `VCF0748`, `VCF0750`, `VCF0803`, `VCF0901a`, `VCF9150`)

#year, respondent age, gender, race, region, political south/nonsouth, party identification, interest in elections, registered to vote, did respondent vote, register and turnout summary, voted on election day or before, voted in person or absentee, liberal/conservative scale, state code, registration status

elections

# A tibble: 10,184 × 16
   VCF0004 VCF0101 VCF0104 VCF0105a VCF0112 VCF0113 VCF0301 VCF0310
     <dbl>   <dbl>   <dbl>    <dbl>   <dbl>   <dbl>   <dbl>   <dbl>
 1    2012      86       2        2       3       1       1       3
 2    2012      79       1        2       3       1       1       3
 3    2012      72       2        2       3       1       1       3
 4    2012      54       2        2       3       1       1       2
 5    2012      35       1        2       3       1       3       3
 6    2012      80       1        2       3       1       4       3
 7    2012      50       2        2       3       1       1       3
 8    2012      70       2        2       3       1       3       1
 9    2012      22       2        2       3       1       1       1
10    2012      49       1        1       4       2       6       3
# ℹ 10,174 more rows
# ℹ 8 more variables: VCF0701 <dbl>, VCF0702 <dbl>, VCF0703 <dbl>,
#   VCF0748 <dbl>, VCF0750 <dbl>, VCF0803 <dbl>, VCF0901a <dbl>,
#   VCF9150 <dbl>

elections <- elections |>
  rename(year = VCF0004, age = VCF0101, gender = VCF0104, race = VCF0105a, region = VCF0112, poli_south = VCF0113, party = VCF0301, interest = VCF0310, registered = VCF0701, voted = VCF0702, turnout_summary = VCF0703, vote_day = VCF0748, vote_method = VCF0750, lib_scale = VCF0803, state_fips = VCF0901a)

elections

# A tibble: 10,184 × 16
    year   age gender  race region poli_south party interest
   <dbl> <dbl>  <dbl> <dbl>  <dbl>      <dbl> <dbl>    <dbl>
 1  2012    86      2     2      3          1     1        3
 2  2012    79      1     2      3          1     1        3
 3  2012    72      2     2      3          1     1        3
 4  2012    54      2     2      3          1     1        2
 5  2012    35      1     2      3          1     3        3
 6  2012    80      1     2      3          1     4        3
 7  2012    50      2     2      3          1     1        3
 8  2012    70      2     2      3          1     3        1
 9  2012    22      2     2      3          1     1        1
10  2012    49      1     1      4          2     6        3
# ℹ 10,174 more rows
# ℹ 8 more variables: registered <dbl>, voted <dbl>,
#   turnout_summary <dbl>, vote_day <dbl>, vote_method <dbl>,
#   lib_scale <dbl>, state_fips <dbl>, VCF9150 <dbl>
…
